<svg width="129px" height="69px" viewBox="0 0 129 69" version="1.1" xmlns="http://www.w3.org/2000/svg" xmlns:xlink="http://www.w3.org/1999/xlink">
    <g id="Responsive-Layouts" stroke="none" stroke-width="1" fill="none" fill-rule="evenodd">
        <g id="Desktop" transform="translate(-1170.000000, -2911.000000)" fill="#451C56">
            <g id="Subscriptions" transform="translate(0.000000, 2520.000000)">
                <g id="Sec---Join">
                    <g id="Flourishes" transform="translate(98.000000, 70.000000)">
                        <g id="Corner-Copy-4" transform="translate(1136.500000, 355.500000) scale(-1, -1) translate(-1136.500000, -355.500000) translate(1072.000000, 321.000000)">
                            <path d="M39.0438298,27.2143167 C38.3099444,38.0474005 32.9272519,48.8817884 24.1180288,46.4040155 C19.4692217,45.1664332 17.7533586,34.0594903 23.8725344,34.9514885 C30.2359056,35.8826095 26.810674,42.6899644 24.6077187,41.4536862 C24.6077187,41.4536862 29.0110314,44.2379204 31.7036765,37.738331 C34.3937239,31.2374374 28.0329504,28.1415254 24.3635232,29.0726464 C24.3635232,29.0726464 26.0767885,26.5948735 31.2139866,24.4274743 C33.5130613,23.4585347 36.1524511,20.5034645 37.8228523,16.8767875 C38.8801669,20.0783309 39.2854275,23.6593647 39.0438298,27.2143167 M118.752881,3.80066721 C112.623314,6.28626462 110.428152,5.54814913 101.990418,4.72135544 C93.5487871,3.89195358 88.1141381,-0.346342118 76.7837262,0.0227156306 C65.4546133,0.391773379 51.9264419,4.16842087 43.7186151,8.77447022 C43.7186151,8.77447022 41.1259862,10.0707367 39.3127047,13.8265187 C39.3088079,13.8408637 39.3062101,13.8539046 39.3010145,13.8669455 C39.2217808,13.6791564 39.1477428,13.4835428 39.0646124,13.2996659 C39.9218945,9.68081345 39.6088567,5.83374505 37.0967603,2.7743476 L37.0850701,2.7743476 C37.0824723,2.84998488 36.9486843,5.51945912 35.9485219,8.34933656 C32.9168606,4.81655408 28.9967433,2.95952852 25.0064848,2.7743476 L23.93748,2.7743476 C22.7801491,2.80825397 21.6085303,2.89954034 20.4901668,3.26990218 C7.35946251,7.61513333 2.59635117,21.743655 0.532379552,43.6171731 C-1.43157582,64.4317693 2.67038917,69 2.67038917,69 C2.67038917,69 8.4583423,61.5692896 4.78761619,43.6171731 C4.78761619,43.6171731 12.1290684,50.1154585 12.6187583,37.7357228 C12.6187583,37.7357228 6.25668598,44.8547554 5.03311061,33.4022284 C3.80953524,21.9497014 10.6625964,5.85330642 22.6515568,5.54293276 C28.0212602,5.40600321 32.0063231,7.57470651 34.7158541,10.9718635 C33.5896972,12.8380177 31.9426764,14.4055351 29.5033191,14.8306687 C22.4073613,16.0682511 19.9589117,17.6175112 18.4924397,19.4745367 C18.4924397,19.4745367 14.8217136,11.4256872 8.70253781,21.6406319 C8.70253781,21.6406319 14.0878281,19.7849104 15.3114035,31.2361333 C16.518093,42.5373858 16.7947613,49.004373 28.5525153,49.7698744 C30.0021014,49.5194889 31.3425789,49.2065071 32.7116325,48.5049061 C33.2156104,48.2466961 33.7208873,47.987182 34.2183707,47.714627 C34.4041152,47.6129079 34.7288432,47.3481774 34.9600496,47.2686279 C35.2146364,46.7052606 35.5809297,46.2827351 36.0017773,45.9606246 C39.130857,41.0559384 41.5299479,34.7454421 41.6234696,26.9430658 C41.6377577,25.7015712 41.5922957,24.5148484 41.5052686,23.3672483 C42.5015343,24.4248661 43.7277075,25.2307943 45.1058535,25.6311503 C51.465328,27.4725267 59.4432472,25.2633966 59.4432472,20.2882895 C59.4432472,15.3144865 56.20376,14.2086173 53.894294,13.6556828 C51.5796323,13.1040523 47.8790312,13.3779114 46.6112928,16.1425843 C45.3383588,18.9059531 47.0750045,21.670626 50.4261982,22.0383796 C53.7760929,22.4061333 54.589212,20.8412241 54.589212,20.8412241 C55.0477281,22.3174551 53.3149791,24.0662411 48.6895524,23.8810602 C44.0667236,23.6971833 40.7129321,19.0924381 41.6390566,15.3144865 C43.4003816,8.12112064 51.1185184,7.94376426 59.0964377,8.40410838 C67.073058,8.86575659 72.5090059,14.7615519 72.3921038,14.0247405 C71.3243979,7.21868968 61.0616919,5.27429002 61.0616919,5.27429002 C65.9170261,2.6009035 81.9884677,-0.347646209 88.3440455,3.33771491 C94.704819,7.02307603 94.0111998,11.1687813 92.3927551,13.0114618 C90.7730115,14.8528383 87.5361221,15.4983633 84.7629444,13.2879291 C81.9884677,11.0761908 86.8425029,7.39213378 85.9215741,6.65532237 C84.9928518,5.91720687 81.1792454,6.00979733 78.8658826,8.12894518 C76.5538187,10.248093 77.36434,14.7615519 81.1792454,17.5249207 C84.9928518,20.2882895 94.3567105,20.1970031 96.2089594,14.4837805 C98.0573116,8.77186204 93.4565643,4.58833816 93.4565643,4.58833816 C96.2206496,5.69029504 101.159114,9.46563844 111.226983,9.46563844 C121.300048,9.46694253 129,1.44156662 129,1.44156662 C125.952752,0.742573853 124.87985,1.31246161 118.752881,3.80066721 Z M44.1611766,28.1611766 C43.1812378,29.1411154 46.9359774,34.4863515 48.2535635,35.8026683 C49.5698802,37.118985 51.4320178,37.3918955 52.4119566,36.4119566 C53.3918955,35.4320178 53.118985,33.5698802 51.8026683,32.2535635 C50.4863515,30.9359774 45.1411154,27.1812378 44.1611766,28.1611766 Z" id="Combined-Shape"></path>
                        </g>
                    </g>
                </g>
            </g>
        </g>
    </g>
</svg>