<svg width="152px" height="111px" viewBox="0 0 152 111" version="1.1" xmlns="http://www.w3.org/2000/svg" xmlns:xlink="http://www.w3.org/1999/xlink">
    <g id="Responsive-Layouts" stroke="none" stroke-width="1">
        <g id="Desktop" transform="translate(-129.000000, -386.000000)" >
            <g id="Cover" transform="translate(0.000000, 280.000000)">
                <g id="Border" transform="translate(115.000000, 90.000000)">
                    <g id="Corner-Copy-2" transform="translate(90.000000, 71.500000) rotate(-180.000000) translate(-90.000000, -71.500000) translate(14.000000, 16.000000)">
                        <path d="M133.778524,84.3963542 C131.955836,88.7753268 129.869871,90.2354384 129.869871,90.2354384 C130.654302,87.1081845 128.048534,81.685886 122.577771,83.9795686 C117.108358,86.2732513 119.452199,90.0270456 119.452199,90.0270456 C118.411242,88.1501485 124.139882,85.2299254 124.922962,90.653586 C125.67499,95.8688538 116.327977,94.4060182 115.28702,90.4438311 C113.201055,82.9362427 122.317194,78.3488773 131.433332,77.7236989 C134.42524,77.5180302 137.437401,77.8626275 140.133628,78.7643008 C137.080964,80.1876372 134.594008,82.4363724 133.778524,84.3963542 L133.778524,84.3963542 Z M152,79.382669 C149.425285,77.2415352 146.187652,76.9759366 143.143088,77.7059924 C141.364955,76.8860417 139.316794,76.2703976 137.013457,75.9040077 C137.517059,75.5539623 138.071966,75.2284337 138.636324,74.9655591 C138.590419,74.9764555 138.541814,74.9805416 138.49591,74.9928 C139.169629,74.3853282 139.787993,73.6321177 140.313197,72.6841348 C144.188096,65.688675 147.366323,54.1589696 147.676855,44.5020751 C147.987387,34.8451807 144.42167,30.2142299 143.723648,23.0199116 C143.026976,15.8283174 142.407262,13.9568685 144.498628,8.73206634 C146.591343,3.51135034 147.071993,2.59741858 146.484682,1.42108547e-14 C146.484682,1.42108547e-14 139.729937,6.56232969 139.731287,15.1472952 C139.731287,23.7281747 142.908164,27.9368917 143.835709,30.2932284 C143.835709,30.2932284 140.314547,26.3719028 135.508052,27.9477881 C130.700207,29.5250354 130.624599,37.5052533 132.949539,40.7564532 C135.275828,44.007653 139.073769,44.6982095 140.855953,42.7286934 C142.639486,40.7564532 142.716444,37.5052533 142.09673,36.7152676 C141.475666,35.929368 138.377097,40.0672587 136.515256,37.7027497 C134.656114,35.3382407 135.19752,32.5801009 136.74748,31.20035 C138.298789,29.819237 141.787549,29.2294718 144.887468,34.6504083 C147.988737,40.0672587 145.508532,53.7639767 143.2592,57.9018675 C143.2592,57.9018675 141.621481,49.1561807 135.895542,48.2463351 C135.275828,48.1455438 140.236239,52.7792187 140.623729,59.577182 C141.011219,66.3765074 140.862703,72.9551817 134.81003,74.4561545 C131.630453,75.2447782 127.755554,72.3872092 127.600288,68.4468148 C127.446372,64.5050585 128.918023,63.0272404 130.158801,63.4195091 C130.158801,63.4195091 128.842416,64.1114277 129.151598,66.9662726 C129.460779,69.8224796 131.787069,71.3030219 134.113358,70.2188346 C136.439648,69.1373713 136.669172,65.9828766 136.204724,64.0106364 C135.740276,62.0424823 134.81003,59.2816184 130.624599,59.2816184 C126.437818,59.2816184 124.578677,66.0809438 126.128636,71.5005183 C126.625487,73.2371248 127.863565,74.6877021 129.440527,75.638409 C121.453105,76.2935524 115.466589,79.8661947 111.379718,83.622713 C107.931463,85.7774672 102.772582,88.1637689 97.6366527,87.3955759 C97.6366527,87.3955759 100.077704,92.2185749 105.486361,90.9368912 C105.418854,91.0553891 105.355397,91.175249 105.298692,91.2855746 C102.9562,95.7884932 101.78293,97.7580093 99.0880522,100.385393 C96.3918246,103.011414 88.0736181,107.608314 81.5146428,105.731417 C74.9502669,103.855882 75.067729,97.5714092 79.0533394,96.2570364 C83.0362495,94.9440257 82.6852133,97.195485 82.6852133,97.195485 C79.7554117,95.6005311 74.4858191,101.978985 81.1622565,103.011414 C87.8400441,104.043844 89.597925,97.4760661 84.7941304,95.2259689 C81.0866487,93.4880003 77.7126513,94.3610707 75.7698013,96.4000511 C77.175296,92.3084699 74.7099422,87.4963672 70.8755474,86.3794908 C65.5033443,84.8158639 58.7634503,86.691399 58.7634503,90.9150985 C58.7634503,95.137436 61.5001821,96.0758845 63.451133,96.5444278 C65.4061343,97.0129711 68.5330562,96.7814235 69.6050666,94.4346211 C70.6797772,92.0878187 69.2121761,89.7410163 66.3809346,89.4291081 C63.5510432,89.1158379 62.8651726,90.4451932 62.8651726,90.4451932 C62.4763326,89.1934744 63.9412334,87.7088461 67.8485357,87.8641191 C71.7544879,88.0207542 74.5870795,91.9298215 73.805349,95.137436 C72.3174958,101.243481 65.7963244,101.393306 59.0564305,101.002399 C52.3178867,100.611492 47.7247138,95.6073413 47.824624,96.2325196 C48.7265169,102.00895 57.3957595,103.66111 57.3957595,103.66111 C53.2940372,105.930275 39.7170393,108.432351 34.3475364,105.303735 C28.9739832,102.176481 29.5585934,98.6569586 30.9276343,97.0919696 C32.2953251,95.5283427 35.0293566,94.9821629 37.373198,96.857698 C39.7170393,98.7345951 35.615317,101.861849 36.3943472,102.488389 C37.1787779,103.113568 40.4002096,103.035931 42.3552109,101.236671 C44.3075119,99.438772 43.6229914,95.6073413 40.4002096,93.2605389 C37.1787779,90.9150985 29.2669633,90.992735 27.7035024,95.8416129 C26.1413915,100.690491 30.0284417,104.242702 30.0284417,104.242702 C27.6927013,103.306978 23.5207717,100.102088 15.0148959,100.102088 C6.50496976,100.100726 0,106.913671 0,106.913671 C2.57471509,107.507523 3.48065837,107.022635 8.6557412,104.911466 C13.8348744,102.80166 15.6899654,103.426838 22.8186994,104.129653 C29.9501337,104.83383 34.5406063,108.430989 44.1130919,108.117719 C53.6855775,107.804448 65.1145042,104.598196 72.0488182,100.689129 C72.9885149,100.159294 73.7364919,99.5354772 74.3373038,98.8558171 C73.416509,102.267738 76.7986072,107.608314 85.3827911,107.608314 C94.2856077,107.608314 102.254128,101.322479 103.566463,98.7849908 C107.363054,91.4490199 112.422025,86.2732513 112.422025,86.2732513 C112.941829,96.6997009 118.412592,96.9080936 128.048534,97.9500576 C137.685826,98.9920215 136.123715,103.582111 136.123715,103.582111 C144.72005,98.3668431 137.946403,95.2395893 137.946403,95.2395893 C139.508514,93.9892326 140.814098,91.9025806 141.855055,85.8551037 C142.212842,83.775262 143.531928,82.3723563 145.10214,81.412115 C147.960384,83.7207802 149.784422,87.1177188 149.66966,91.6941879 C149.407733,101.912245 135.864489,107.752691 126.227196,106.710727 C116.589904,105.667401 122.580471,100.245102 122.580471,100.245102 C112.162798,100.661888 117.630861,106.91912 117.630861,106.91912 C102.525506,103.790504 96.2716622,108.723828 96.2716622,108.723828 C96.2716622,108.723828 100.116858,112.220196 117.630861,110.546244 C136.037306,108.786482 147.92528,104.72759 151.582807,93.5370339 C151.894689,92.5836028 151.970297,91.5838623 152,90.5991042 L152,89.6878965 C151.843384,86.2868718 150.281273,82.9444149 147.308267,80.3606168 C149.689912,79.507977 151.935193,79.3949274 152,79.3922033 L152,79.382669 Z" id="Fill-3"></path>
                    </g>
                </g>
            </g>
        </g>
    </g>
</svg>